{
    "contract_presets": [
        {
            "name": "simple",
            "code": "parameter unit;\nstorage unit;\ncode { CAR; NIL operation; PAIR}",
            "storage": "Unit",
            "balance": 0
        },
        {
            "name": "if",
            "code": "parameter unit ;\nstorage unit ;\ncode { CAR ;\n       PUSH int 3 ;\n       PUSH int 3 ;\n       IFCMPEQ { DROP } { DROP } ;\n       UNIT;\n       NIL operation ;\n       PAIR }",
            "storage": "Unit",
            "balance": 0
        },
        {
            "name": "transfer_source",
            "code": "parameter unit;\nstorage unit;\ncode { DROP;\n       SOURCE;\n       CONTRACT unit;\n       ASSERT_SOME;\n       PUSH mutez 300;\n       UNIT;\n       TRANSFER_TOKENS;\n       DIP { NIL operation };\n       CONS;\n       DIP { UNIT };\n       PAIR;\n       }",
            "storage": "Unit",
            "balance": 0
        }
    ],
    "bootstraps": [
        {
            "name": "default",
            "balances": ["300", "300", "300", "300"]
        }
    ],
    "scenarios": [
        {
            "name": "basic",
            "contracts": [
                {
                    "load_from": "if"
                },
                { "load_from": "simple"}
            ],
            "params": {
                "parameter": "Unit",
                "gas": "200000",
                "mutez": "300",
                "id": "0",
                "payer": "tz1KqTpEZ7Yob7QbPE4Hy4Wo8fHG8LhKxZSx",
                "boot_balances": "default",
                "entrypoint": "default",
                "protocol": "athens"
            }
        }
    ]
}